`dsm` data formatting example
…
In the above code we have loaded the sf package. This is the package we will use to do most of our spatial work in segmenting the data. It has most of the tools that modern a GIS has, though the package is still being developed so its functionality is increasing all the time.

Investigating the transects data we loaded, we can see it consists of a data.frame with some extra bits (the spatial information, including locations (geometry) and projection (CRS)):

transects

Simple feature collection with 508 features and 1 field
geometry type:  LINESTRING
dimension:      XY
bbox:           xmin: -71.86948 ymin: 40.82944 xmax: -70.8944 ymax: 41.46521
CRS:            4326
# A tibble: 508 x 2
   Transect                                 geometry
      <dbl>                         <LINESTRING []>
 1        1  (-71.86764 41.2793, -71.86581 41.25891)
 2        1  (-71.86948 41.29969, -71.86764 41.2793)
 3        2   (-71.82327 41.2462, -71.82145 41.2258)
 4        2  (-71.82872 41.30738, -71.8269 41.28698)
 5        2  (-71.82508 41.26659, -71.82327 41.2462)
 6        2  (-71.8269 41.28698, -71.82508 41.26659)
 7        3 (-71.75849 40.96885, -71.75676 40.94846)
 8        3 (-71.76022 40.98925, -71.75849 40.96885)
 9        3 (-71.76195 41.00965, -71.76022 40.98925)
10        3 (-71.77062 41.11164, -71.76888 41.09124)
#  with 498 more rows
…
segs <- st_segmentize(transects, dfMaxLength=units::set_units(2000, m))

Here we know the truncation used for the detection function was 1000m (the distances were collected in bins and this was the further bin), and since were trying to make our segments approximately square, we set the length to be twice that (since the truncation applies to either side of the transect), so 2000m.

Looking at what that did:

segs

Simple feature collection with 508 features and 1 field
geometry type:  LINESTRING
dimension:      XY
bbox:           xmin: -71.86948 ymin: 40.82944 xmax: -70.8944 ymax: 41.46521
CRS:            4326
# A tibble: 508 x 2
   Transect                                                   geometry
      <dbl>                                           <LINESTRING []>
 1        1 (-71.86764 41.2793, -71.86673 41.2691, -71.86581 41.25891)
 2        1 (-71.86948 41.29969, -71.86856 41.2895, -71.86764 41.2793)
 3        2   (-71.82327 41.2462, -71.82236 41.236, -71.82145 41.2258)
 4        2 (-71.82872 41.30738, -71.82781 41.29718, -71.8269 41.2869
 5        2 (-71.82508 41.26659, -71.82418 41.25639, -71.82327 41.246
 6        2 (-71.8269 41.28698, -71.82599 41.27679, -71.82508 41.2665
 7        3 (-71.75849 40.96885, -71.75762 40.95865, -71.75676 40.948
 8        3 (-71.76022 40.98925, -71.75935 40.97905, -71.75849 40.968
 9        3 (-71.76195 41.00965, -71.76108 40.99945, -71.76022 40.989
10        3 (-71.77062 41.11164, -71.76975 41.10144, -71.76888 41.091
#  with 498 more rows
…
Now we can check that looks right:

segs

Simple feature collection with 508 features and 3 fields
geometry type:  LINESTRING
dimension:      XY
bbox:           xmin: -71.86948 ymin: 40.82944 xmax: -70.8944 ymax: 41.46521
CRS:            4326
# A tibble: 508 x 4
   Transect                             geometry   Effort Sample.Label
      <dbl>                     <LINESTRING []>      [m] <chr>       
 1        1 (-71.86764 41.2793, -71.86673 41.26 2269.990 2010-RI-1-1 
 2        1 (-71.86948 41.29969, -71.86856 41.2 2269.990 2010-RI-1-2 
 3        2 (-71.82327 41.2462, -71.82236 41.23 2269.996 2010-RI-2-1 
 4        2 (-71.82872 41.30738, -71.82781 41.2 2269.996 2010-RI-2-2 
 5        2 (-71.82508 41.26659, -71.82418 41.2 2269.996 2010-RI-2-3 
 6        2 (-71.8269 41.28698, -71.82599 41.27 2269.996 2010-RI-2-4 
 7        3 (-71.75849 40.96885, -71.75762 40.9 2270.004 2010-RI-3-1 
 8        3 (-71.76022 40.98925, -71.75935 40.9 2270.003 2010-RI-3-2 
 9        3 (-71.76195 41.00965, -71.76108 40.9 2270.003 2010-RI-3-3 
10        3 (-71.77062 41.11164, -71.76975 41.1 2270.002 2010-RI-3-4 
#  with 498 more rows

With the required columns taken care of, we can also calculate the centroids of our segments to get the locations of each segment to use in the spatial model. Handily we can use st_centroid to do this in one step and keep all our data at the same time:

segs <- st_centroid(segs)
segs

Simple feature collection with 508 features and 3 fields
geometry type:  POINT
dimension:      XY
bbox:           xmin: -71.86856 ymin: 40.83964 xmax: -70.89518 ymax: 41.45501
CRS:            4326
# A tibble: 508 x 4
   Transect             geometry   Effort Sample.Label
      <dbl>          <POINT []>      [m] <chr>       
 1        1  (-71.86673 41.2691) 2269.990 2010-RI-1-1 
 2        1  (-71.86856 41.2895) 2269.990 2010-RI-1-2 
 3        2   (-71.82236 41.236) 2269.996 2010-RI-2-1 
 4        2 (-71.82781 41.29718) 2269.996 2010-RI-2-2 
 5        2 (-71.82418 41.25639) 2269.996 2010-RI-2-3 
 6        2 (-71.82599 41.27679) 2269.996 2010-RI-2-4 
 7        3 (-71.75762 40.95865) 2270.004 2010-RI-3-1 
 8        3 (-71.75935 40.97905) 2270.003 2010-RI-3-2 
 9        3 (-71.76108 40.99945) 2270.003 2010-RI-3-3 
10        3 (-71.76975 41.10144) 2270.002 2010-RI-3-4 
#  with 498 more rows
…
